%YAML 1.1
%TAG !u! tag:unity3d.com,2011:
--- !u!114 &11400000
MonoBehaviour:
  m_ObjectHideFlags: 0
  m_PrefabParentObject: {fileID: 0}
  m_PrefabInternal: {fileID: 0}
  m_GameObject: {fileID: 0}
  m_Enabled: 1
  m_EditorHideFlags: 0
  m_Script: {fileID: 11500000, guid: 1263494d9c65ad846a1e2901a9e88a32, type: 3}
  m_Name: GloomyGreens
  m_EditorClassIdentifier: 
  values:
  - {fileID: 2100000, guid: 31ad64cfd47f4e6469a6b9ddebfff17b, type: 2}
  - {fileID: 2100000, guid: c9a55a003acbf244caee6243d3d9cb29, type: 2}
  - {fileID: 2100000, guid: 73935a940af66e245a4b889581940981, type: 2}
  previews:
  - {fileID: 2800000, guid: c67943f28f2807642a60599649b3c11a, type: 3}
  - {fileID: 2800000, guid: 13394452e33b41e468b06288eb3ebe08, type: 3}
  - {fileID: 2800000, guid: 51abb64b073739146911b6ee9d826692, type: 3}
